module github.com/env25/mpdlrc

go 1.18

require (
	github.com/fhs/gompd/v2 v2.2.0
	github.com/gdamore/tcell/v2 v2.5.1
	github.com/mattn/go-runewidth v0.0.13
	github.com/pelletier/go-toml/v2 v2.0.2
	github.com/rivo/uniseg v0.2.0
	github.com/spf13/pflag v1.0.5
	go.uber.org/atomic v1.9.0
	go.uber.org/multierr v1.8.0
)

require (
	github.com/gdamore/encoding v1.0.0 // indirect
	github.com/lucasb-eyer/go-colorful v1.2.0 // indirect
	golang.org/x/sys v0.0.0-20220318055525-2edf467146b5 // indirect
	golang.org/x/term v0.0.0-20201210144234-2321bbc49cbf // indirect
	golang.org/x/text v0.3.7 // indirect
)
